…
### group\_by & summarize:

On a souvent besoins de calculer des résumés statistiques par type de observations. Par exemple, on peut vouloir obetenir les revenus moyen par genre de jeux, ou par type de plateforme. Pour calculer ce genre de résultats nous devons utiliser deux fonctions dans un pipe de ce type: `data %>% group_by() %>% summarise()`.

La fonction `group_by()` permet de séparer un tableau en plusieurs tableau sur la base des informations des colonnes spécifiées. Par example si on fait un group by sur la base du genre de jeux, la fonction séparera le tableau en une list de tableaux chacun contenant les données correspondantes à un genre (`Action`, `Adventure`, `Fighting` ...):

``` r
vg_sales %>%
  group_by(Genre)
```

    ## Source: local data frame [16,719 x 16]
    ## Groups: Genre [13]
    ## 
    ##                         Name Platform Year_of_Release        Genre
    ##                        <chr>    <chr>           <int>        <chr>
    ## 1                 Wii Sports      Wii            2006       Sports
    ## 2          Super Mario Bros.      NES            1985     Platform
    ## 3             Mario Kart Wii      Wii            2008       Racing
    ## 4          Wii Sports Resort      Wii            2009       Sports
    ## 5   Pokemon Red/Pokemon Blue       GB            1996 Role-Playing
    ## 6                     Tetris       GB            1989       Puzzle
    ## 7      New Super Mario Bros.       DS            2006     Platform
    ## 8                   Wii Play      Wii            2006         Misc
    ## 9  New Super Mario Bros. Wii      Wii            2009     Platform
    ## 10                 Duck Hunt      NES            1984      Shooter
    ## # ... with 16,709 more rows, and 12 more variables: Publisher <chr>,
    ## #   NA_Sales <dbl>, EU_Sales <dbl>, JP_Sales <dbl>, Other_Sales <dbl>,
    ## #   Global_Sales <dbl>, Critic_Score <int>, Critic_Count <int>,
    ## #   User_Score <dbl>, User_Count <int>, Developer <chr>, Rating <chr>
…
